-- Merging decision tree log ---
manifest
ADDED from /home/a03080112/AndroidP/PahlawanKita/droidAR/src/main/AndroidManifest.xml:2:1-41:12
INJECTED from /home/a03080112/AndroidP/PahlawanKita/droidAR/src/main/AndroidManifest.xml:2:1-41:12
INJECTED from /home/a03080112/AndroidP/PahlawanKita/droidAR/src/main/AndroidManifest.xml:2:1-41:12
INJECTED from /home/a03080112/AndroidP/PahlawanKita/droidAR/src/main/AndroidManifest.xml:2:1-41:12
INJECTED from /home/a03080112/AndroidP/PahlawanKita/droidAR/src/main/AndroidManifest.xml:2:1-41:12
INJECTED from /home/a03080112/AndroidP/PahlawanKita/droidAR/src/main/AndroidManifest.xml:2:1-41:12
INJECTED from /home/a03080112/AndroidP/PahlawanKita/droidAR/src/main/AndroidManifest.xml:2:1-41:12
	package
		ADDED from /home/a03080112/AndroidP/PahlawanKita/droidAR/src/main/AndroidManifest.xml:3:5-22
		INJECTED from /home/a03080112/AndroidP/PahlawanKita/droidAR/src/main/AndroidManifest.xml
		INJECTED from /home/a03080112/AndroidP/PahlawanKita/droidAR/src/main/AndroidManifest.xml
	android:versionName
		ADDED from /home/a03080112/AndroidP/PahlawanKita/droidAR/src/main/AndroidManifest.xml:5:5-30
		INJECTED from /home/a03080112/AndroidP/PahlawanKita/droidAR/src/main/AndroidManifest.xml
		INJECTED from /home/a03080112/AndroidP/PahlawanKita/droidAR/src/main/AndroidManifest.xml
	xmlns:android
		ADDED from /home/a03080112/AndroidP/PahlawanKita/droidAR/src/main/AndroidManifest.xml:2:11-69
	android:versionCode
		ADDED from /home/a03080112/AndroidP/PahlawanKita/droidAR/src/main/AndroidManifest.xml:4:5-28
		INJECTED from /home/a03080112/AndroidP/PahlawanKita/droidAR/src/main/AndroidManifest.xml
		INJECTED from /home/a03080112/AndroidP/PahlawanKita/droidAR/src/main/AndroidManifest.xml
application
ADDED from /home/a03080112/AndroidP/PahlawanKita/droidAR/src/main/AndroidManifest.xml:7:5-32
uses-sdk
ADDED from /home/a03080112/AndroidP/PahlawanKita/droidAR/src/main/AndroidManifest.xml:14:5-43
INJECTED from /home/a03080112/AndroidP/PahlawanKita/droidAR/src/main/AndroidManifest.xml:14:5-43
INJECTED from /home/a03080112/AndroidP/PahlawanKita/droidAR/src/main/AndroidManifest.xml:14:5-43
INJECTED from /home/a03080112/AndroidP/PahlawanKita/droidAR/src/main/AndroidManifest.xml:14:5-43
INJECTED from /home/a03080112/AndroidP/PahlawanKita/droidAR/src/main/AndroidManifest.xml:14:5-43
	android:targetSdkVersion
		INJECTED from /home/a03080112/AndroidP/PahlawanKita/droidAR/src/main/AndroidManifest.xml
		ADDED from /home/a03080112/AndroidP/PahlawanKita/droidAR/src/main/AndroidManifest.xml:14:5-43
		INJECTED from /home/a03080112/AndroidP/PahlawanKita/droidAR/src/main/AndroidManifest.xml
	android:minSdkVersion
		ADDED from /home/a03080112/AndroidP/PahlawanKita/droidAR/src/main/AndroidManifest.xml:14:15-40
		INJECTED from /home/a03080112/AndroidP/PahlawanKita/droidAR/src/main/AndroidManifest.xml
		INJECTED from /home/a03080112/AndroidP/PahlawanKita/droidAR/src/main/AndroidManifest.xml
uses-permission#android.permission.ACCESS_COARSE_LOCATION
ADDED from /home/a03080112/AndroidP/PahlawanKita/droidAR/src/main/AndroidManifest.xml:20:5-81
	android:name
		ADDED from /home/a03080112/AndroidP/PahlawanKita/droidAR/src/main/AndroidManifest.xml:20:22-78
uses-permission#android.permission.ACCESS_FINE_LOCATION
ADDED from /home/a03080112/AndroidP/PahlawanKita/droidAR/src/main/AndroidManifest.xml:21:5-79
	android:name
		ADDED from /home/a03080112/AndroidP/PahlawanKita/droidAR/src/main/AndroidManifest.xml:21:22-76
uses-permission#android.permission.CAMERA
ADDED from /home/a03080112/AndroidP/PahlawanKita/droidAR/src/main/AndroidManifest.xml:22:5-65
	android:name
		ADDED from /home/a03080112/AndroidP/PahlawanKita/droidAR/src/main/AndroidManifest.xml:22:22-62
uses-permission#android.permission.INTERNET
ADDED from /home/a03080112/AndroidP/PahlawanKita/droidAR/src/main/AndroidManifest.xml:23:5-67
	android:name
		ADDED from /home/a03080112/AndroidP/PahlawanKita/droidAR/src/main/AndroidManifest.xml:23:22-64
uses-permission#android.permission.VIBRATE
ADDED from /home/a03080112/AndroidP/PahlawanKita/droidAR/src/main/AndroidManifest.xml:24:5-66
	android:name
		ADDED from /home/a03080112/AndroidP/PahlawanKita/droidAR/src/main/AndroidManifest.xml:24:22-63
uses-permission#android.permission.WRITE_EXTERNAL_STORAGE
ADDED from /home/a03080112/AndroidP/PahlawanKita/droidAR/src/main/AndroidManifest.xml:25:5-81
	android:name
		ADDED from /home/a03080112/AndroidP/PahlawanKita/droidAR/src/main/AndroidManifest.xml:25:22-78
uses-feature#android.hardware.camera
ADDED from /home/a03080112/AndroidP/PahlawanKita/droidAR/src/main/AndroidManifest.xml:27:5-60
	android:name
		ADDED from /home/a03080112/AndroidP/PahlawanKita/droidAR/src/main/AndroidManifest.xml:27:19-57
uses-feature#android.hardware.camera.autofocus
ADDED from /home/a03080112/AndroidP/PahlawanKita/droidAR/src/main/AndroidManifest.xml:28:5-70
	android:name
		ADDED from /home/a03080112/AndroidP/PahlawanKita/droidAR/src/main/AndroidManifest.xml:28:19-67
uses-feature#0x00020000
ADDED from /home/a03080112/AndroidP/PahlawanKita/droidAR/src/main/AndroidManifest.xml:29:5-54
	android:glEsVersion
		ADDED from /home/a03080112/AndroidP/PahlawanKita/droidAR/src/main/AndroidManifest.xml:29:19-51
supports-screens
ADDED from /home/a03080112/AndroidP/PahlawanKita/droidAR/src/main/AndroidManifest.xml:35:5-39:39
	android:largeScreens
		ADDED from /home/a03080112/AndroidP/PahlawanKita/droidAR/src/main/AndroidManifest.xml:37:9-36
	android:smallScreens
		ADDED from /home/a03080112/AndroidP/PahlawanKita/droidAR/src/main/AndroidManifest.xml:39:9-36
	android:normalScreens
		ADDED from /home/a03080112/AndroidP/PahlawanKita/droidAR/src/main/AndroidManifest.xml:38:9-37
	android:anyDensity
		ADDED from /home/a03080112/AndroidP/PahlawanKita/droidAR/src/main/AndroidManifest.xml:36:9-34
